…
    ##  9 nu[9]    -0.83  -0.83  0.11 -1    -0.66     1    1306.    2561.
    ## 10 nu[10]   -1.42  -1.42  0.14 -1.65 -1.2      1    2113.    2612.
    ## 11 a[1]      0.44   0.44  0.02  0.41  0.47     1    1891.    2533.
    ## 12 a[2]      0.49   0.49  0.02  0.46  0.53     1    2143.    2732.
    ## 13 a[3]      0.5    0.49  0.02  0.46  0.54     1    1682.    3054.
    ## 14 a[4]      0.51   0.51  0.03  0.47  0.56     1    1508.    2357.
    ## 15 a[5]      0.51   0.51  0.02  0.48  0.55     1    1921.    2418.
    ## 16 a[6]      0.43   0.43  0.02  0.4   0.47     1    2117.    2981.
    ## 17 a[7]      0.4    0.4   0.02  0.37  0.45     1    2080.    2672.
    ## 18 a[8]      0.42   0.42  0.02  0.38  0.46     1    1905.    2425.
    ## 19 a[9]      0.35   0.35  0.02  0.32  0.38     1    2569.    2313.
    ## 20 a[10]     0.55   0.55  0.03  0.5   0.6      1    1779.    2337.
    ## 
    ## Subject parameters:
    ## # A tibble: 429 × 9
    ##    variable  mean median    sd    q5   q95  rhat ess_bulk ess_tail
    ##    <chr>    <dbl>  <dbl> <dbl> <dbl> <dbl> <dbl>    <dbl>    <dbl>
    ##  1 tnd[1]    0.37   0.36  0.1   0.22  0.54     1    4895.    3073.
    ##  2 tnd[2]    0.4    0.4   0.09  0.24  0.54     1    3672.    2885.
    ##  3 tnd[3]    0.46   0.47  0.12  0.27  0.65     1    3868.    3010.
    ##  4 tnd[4]    0.27   0.27  0.06  0.18  0.37     1    4644.    2926.
    ##  5 tnd[5]    0.39   0.39  0.08  0.26  0.51     1    4105.    3447.
    ##  6 tnd[6]    0.31   0.32  0.06  0.21  0.41     1    4428.    3376.
    ##  7 tnd[7]    0.39   0.39  0.09  0.24  0.53     1    4004.    2712.
    ##  8 tnd[8]    0.52   0.52  0.15  0.27  0.78     1    3288.    2695.
    ##  9 tnd[9]    0.34   0.34  0.07  0.21  0.46     1    4880.    2951.
    ## 10 tnd[10]   0.43   0.42  0.13  0.24  0.65     1    4587.    2806.
    ## # ℹ 419 more rows
    ## 
    ## Other parameters:
    ## # A tibble: 429 × 9
    ##    variable     mean median    sd    q5   q95  rhat ess_bulk ess_tail
    ##    <chr>       <dbl>  <dbl> <dbl> <dbl> <dbl> <dbl>    <dbl>    <dbl>
    ##  1 z_theta[1]  -0.82  -0.82  0.36 -1.4  -0.24     1    3458.    2830.
    ##  2 z_theta[2]  -0.3   -0.31  0.54 -1.17  0.62     1    5767.    2674.
    ##  3 z_theta[3]   0.4    0.39  0.54 -0.45  1.32     1    5866.    3116.
    ##  4 z_theta[4]   0.49   0.48  0.46 -0.26  1.26     1    4103.    3000.
    ##  5 z_theta[5]   1.47   1.48  0.67  0.4   2.59     1    5223.    3058.
    ##  6 z_theta[6]  -0.07  -0.07  0.53 -0.96  0.8      1    5785.    3105.
    ##  7 z_theta[7]  -0.07  -0.07  0.52 -0.91  0.8      1    5294.    2862.
    ##  8 z_theta[8]   0.33   0.32  0.56 -0.59  1.28     1    4870.    3072.
    ##  9 z_theta[9]   0.27   0.27  0.49 -0.53  1.07     1    5256.    2935.
    ## 10 z_theta[10]  0.37   0.36  0.46 -0.35  1.13     1    4306.    2974.
    ## # ℹ 419 more rows
…
